%YAML 1.1
%TAG !u! tag:unity3d.com,2011:
--- !u!114 &11400000
MonoBehaviour:
  m_ObjectHideFlags: 0
  m_CorrespondingSourceObject: {fileID: 0}
  m_PrefabInstance: {fileID: 0}
  m_PrefabAsset: {fileID: 0}
  m_GameObject: {fileID: 0}
  m_Enabled: 1
  m_EditorHideFlags: 0
  m_Script: {fileID: 11500000, guid: 49646a168addbe846bac6333f12c8512, type: 3}
  m_Name: ZombieFastSmall
  m_EditorClassIdentifier: 
  speed: 0.5
  angularSpeed: 200
  Acceleration: 9
  minRadio: 0.3
  maxRadio: 0.6
  prefab: {fileID: 7196617632732879729, guid: 581f9ea8b994d9e4d8a2c475bb924e3d, type: 3}
